{
  "images" : [
    {
      "idiom" : "universal",
      "filename" : "Megaphone_w_on .png",
      "scale" : "1x"
    },
    {
      "idiom" : "universal",
      "filename" : "Megaphone_w_on -1.png",
      "scale" : "2x"
    },
    {
      "idiom" : "universal",
      "filename" : "megaphone_w_.png",
      "scale" : "3x"
    }
  ],
  "info" : {
    "version" : 1,
    "author" : "xcode"
  }
}